Chapter 3: Introducing the multilevel model for change • alda
…
cognitive_score: Cognitive performance score on one of
two standardized intelligence tests: the Bayley Scales of Infant
Development (Bayley, 1969) at 12 and 18 months, and the the Stanford
Binet (Terman & Merrill, 1972) at 24 months.

Note that for reasons of participant privacy the
early_intervention data set uses simulated data
rather than the real data used by Singer and Willet (2003), so the
examples presented in this article will have similar but not identical
results to those presented in the text.

# Table 3.1, page 48:
early_intervention
#> # A tibble: 309 × 4
#>    id      age treatment cognitive_score
#>    <fct> <dbl>     <dbl>           <dbl>
#>  1 1       1           1           106. 
#>  2 1       1.5         1            91.7
#>  3 1       2           1            74.2
#>  4 2       1           1           112. 
#>  5 2       1.5         1           114. 
#>  6 2       2           1           119. 
#>  7 3       1           0            90.4
#>  8 3       1.5         0            94.7
#>  9 3       2           0            80.4
#> 10 4       1           1           103. 
#> # ℹ 299 more rows
…
Next we’ll look at the time-invariant treatment
variable. Because we’re summarizing a time-invariant predictor, we’ll
transform the data to person-level format with the
pivot_wider() function from the tidyr
package before summarizing.

early_intervention_pl <- pivot_wider(
  early_intervention,
  names_from = age,
  names_prefix = "age_",
  values_from = cognitive_score
)

early_intervention_pl
#> # A tibble: 103 × 5
#>    id    treatment age_1 age_1.5 age_2
#>    <fct>     <dbl> <dbl>   <dbl> <dbl>
#>  1 1             1 106.     91.7  74.2
#>  2 2             1 112.    114.  119. 
#>  3 3             0  90.4    94.7  80.4
#>  4 4             1 103.    101.   93.9
#>  5 5             1 103.     75.0  71.7
#>  6 6             0 106.     96.8  93.5
#>  7 7             1 136.    117.  119. 
#>  8 8             0  79.8    69.3  67.5
#>  9 9             1 113.    105.  108. 
#> 10 10            1  88.2    87.5  85.3
#> # ℹ 93 more rows
…
To do so, we’ll first use the augment() function from
the broom and broom.mixed packages to
get the predicted values for each child’s fitted trajectory from the
complete pooling, no pooling, and partial pooling models. Note that
augment() is a generic function, whose methods for linear
and multilevel models are available in the broom broom.mixed packages,
respectively.

# Because the complete pooling model does not have a group indicator for
# individuals, we need to manually add the IDs to the predicted values.
early_intervention_pred_cp <- early_intervention_fit_cp |>
  augment() |>
  mutate(model = "complete_pooling", id = early_intervention$id)
early_intervention_pred_cp
#> # A tibble: 309 × 10
#>    cognitive_score `I(age - 1)` .fitted .resid    .hat .sigma .cooksd .std.resid
#>              <dbl>     <I<dbl>>   <dbl>  <dbl>   <dbl>  <dbl>   <dbl>      <dbl>
#>  1           106.           0     110.   -4.04 0.00809   13.8 3.52e-4     -0.294
#>  2            91.7          0.5   101.   -9.74 0.00324   13.8 8.11e-4     -0.707
#>  3            74.2          1      93.0 -18.7  0.00809   13.8 7.58e-3     -1.36 
#>  4           112.           0     110.    2.33 0.00809   13.8 1.17e-4      0.169
#>  5           114.           0.5   101.   12.5  0.00324   13.8 1.33e-3      0.905
#>  6           119.           1      93.0  26.3  0.00809   13.7 1.49e-2      1.91 
#>  7            90.4          0     110.  -19.5  0.00809   13.8 8.19e-3     -1.42 
#>  8            94.7          0.5   101.   -6.69 0.00324   13.8 3.82e-4     -0.485
#>  9            80.4          1      93.0 -12.6  0.00809   13.8 3.42e-3     -0.916
#> 10           103.           0     110.   -6.77 0.00809   13.8 9.88e-4     -0.492
#> # ℹ 299 more rows
#> # ℹ 2 more variables: model <chr>, id <fct>

# Because the no pooling models are separate linear models stored in a list, we
# need to apply the augment() call to each model, then bind the predicted values
# from each model into a single data set. Here the individual ID for each model
# is stored in the name of list entry, which we add to the data frame using the
# `names_to` argument of list_rbind().
early_intervention_pred_np <- early_intervention_fit_np |>
  map(augment) |>
  list_rbind(names_to = "id") |>
  mutate(model = "no_pooling")
early_intervention_pred_np
#> # A tibble: 309 × 10
#>    id    cognitive_score `I(age - 1)` .fitted .resid  .hat .sigma .cooksd
#>    <chr>           <dbl>     <I<dbl>>   <dbl>  <dbl> <dbl>  <dbl>   <dbl>
#>  1 1               106.           0     106.  -0.551 0.833    NaN    2.50
#>  2 1                91.7          0.5    90.6  1.10  0.333    NaN    0.25
#>  3 1                74.2          1      74.8 -0.551 0.833    Inf    2.50
#>  4 2               112.           0     112.   0.610 0.833    NaN    2.50
#>  5 2               114.           0.5   115.  -1.22  0.333    NaN    0.25
#>  6 2               119.           1     119.   0.610 0.833    Inf    2.50
#>  7 3                90.4          0      93.5 -3.12  0.833    NaN    2.50
#>  8 3                94.7          0.5    88.5  6.23  0.333    NaN    0.25
#>  9 3                80.4          1      83.5 -3.12  0.833    Inf    2.50
#> 10 4               103.           0     104.  -0.686 0.833    NaN    2.50
#> # ℹ 299 more rows
#> # ℹ 2 more variables: .std.resid <dbl>, model <chr>

# Nothing special needs to be done for the partial pooling model, aside from
# having the broom.mixed package loaded.
early_intervention_pred_pp <- early_intervention_fit_1 |>
  augment() |>
  mutate(model = "partial_pooling")
early_intervention_pred_pp
#> # A tibble: 309 × 15
#>    cognitive_score `I(age - 1)` id    .fitted .resid  .hat .cooksd .fixed   .mu
#>              <dbl>     <I<dbl>> <fct>   <dbl>  <dbl> <dbl>   <dbl>  <dbl> <dbl>
#>  1           106.           0   1       103.   3.11  0.439 0.0974   110.  103. 
#>  2            91.7          0.5 1        92.6 -0.939 0.276 0.00336  101.   92.6
#>  3            74.2          1   1        82.5 -8.29  0.395 0.535     93.0  82.5
#>  4           112.           0   2       118.  -5.90  0.439 0.352    110.  118. 
#>  5           114.           0.5 2       112.   1.42  0.276 0.00765  101.  112. 
#>  6           119.           1   2       107.  12.4   0.395 1.20      93.0 107. 
#>  7            90.4          0   3        97.7 -7.34  0.439 0.543    110.   97.7
#>  8            94.7          0.5 3        90.7  4.07  0.276 0.0632   101.   90.7
#>  9            80.4          1   3        83.6 -3.21  0.395 0.0803    93.0  83.6
#> 10           103.           0   4       107.  -3.71  0.439 0.139    110.  107. 
#> # ℹ 299 more rows
#> # ℹ 6 more variables: .offset <dbl>, .sqrtXwt <dbl>, .sqrtrwt <dbl>,
#> #   .weights <dbl>, .wtres <dbl>, model <chr>
…
Next, we’ll tidy and sample the predicted values data.

set.seed(333)
early_intervention_preds_tidy <- early_intervention_preds |>
  select(model, id, cognitive_score, age = `I(age - 1)`, .fitted) |>
  mutate(
    id = factor(id, levels = unique(id)),
    age = as.numeric(age + 1)
  ) |>
  filter(id %in% sample(unique(id), size = 8))

early_intervention_preds_tidy
#> # A tibble: 72 × 5
#>    model            id    cognitive_score   age .fitted
#>    <chr>            <fct>           <dbl> <dbl>   <dbl>
#>  1 complete_pooling 2               112.    1     110. 
#>  2 complete_pooling 2               114.    1.5   101. 
#>  3 complete_pooling 2               119.    2      93.0
#>  4 complete_pooling 6               106.    1     110. 
#>  5 complete_pooling 6                96.8   1.5   101. 
#>  6 complete_pooling 6                93.5   2      93.0
#>  7 complete_pooling 14               88.7   1     110. 
#>  8 complete_pooling 14               97.6   1.5   101. 
#>  9 complete_pooling 14               81.3   2      93.0
#> 10 complete_pooling 39              111.    1     110. 
#> # ℹ 62 more rows
…
