Chapter 10: Describing discrete-time event occurrence data • alda
…
For this example we return to the teachers data set
introduced in Chapter 9, a person-level data frame with 3941 rows and 3
columns:

id: Teacher ID.

years: The number of years between a teacher’s dates of
hire and departure from the Michigan public schools.

censor: Censoring status.

teachers
#> # A tibble: 3,941 × 3
#>    id    years censor
#>    <fct> <dbl>  <dbl>
#>  1 1         1      0
#>  2 2         2      0
#>  3 3         1      0
#>  4 4         1      0
#>  5 5        12      1
#>  6 6         1      0
#>  7 7        12      1
#>  8 8         1      0
#>  9 9         2      0
#> 10 10        2      0
#> # ℹ 3,931 more rows
…
In Section 10.3 Singer and Willett (2003) examine and describe the
estimated discrete-time hazard functions, survivor functions, and median
lifetimes from four studies that differ by their type of target event,
metric for clocking time, and underlying profile of risk:

cocaine_relapse_1: A person-level data frame with
104 rows and 4 columns containing a subset of data from Hall, Havassy,
and Wasserman (1990), who measured the number of weeks of relapse to
cocaine use in a sample of 104 former addicts released from an
in-patient treatment program. In-patients were followed for up to 12
weeks or until they used cocaine for 7 consecutive days.

cocaine_relapse_1
#> # A tibble: 104 × 4
#>    id    weeks censor needle
#>    <fct> <dbl>  <dbl>  <dbl>
#>  1 501       2      0      1
#>  2 502      12      1      0
#>  3 503       1      0      1
#>  4 505       9      0      1
#>  5 507       3      0      1
#>  6 508       2      0      1
#>  7 509      12      1      0
#>  8 510      12      1      1
#>  9 511       1      0      1
#> 10 512       2      0      1
#> # ℹ 94 more rows

first_sex: A person-level data frame with 180 rows
and 5 columns containing a subset of data from Capaldi, Crosby, and
Stoolmiller (1996), who measured the grade year of first sexual
intercourse in a sample of 180 at-risk heterosexual adolescent males.
Adolescent males were followed from Grade 7 up to Grade 12 or until they
reported having had sexual intercourse for the first time.

first_sex
#> # A tibble: 180 × 5
#>    id    grade censor parental_transition parental_antisociality
#>    <fct> <dbl>  <dbl>               <dbl>                  <dbl>
#>  1 1         9      0                   0                  1.98 
#>  2 2        12      1                   1                 -0.545
#>  3 3        12      1                   0                 -1.40 
#>  4 5        12      0                   1                  0.974
#>  5 6        11      0                   0                 -0.636
#>  6 7         9      0                   1                 -0.243
#>  7 9        12      1                   0                 -0.869
#>  8 10       11      0                   0                  0.454
#>  9 11       12      1                   1                  0.802
#> 10 12       11      0                   1                 -0.746
#> # ℹ 170 more rows

suicide_ideation: A person-level data frame with 391
rows and 4 columns containing a subset of data from Bolger and
colleagues (1989) measuring age of first suicide ideation in a sample of
391 undergraduate students aged 16 to 22. Age of first suicide ideation
was measured with a two-item survey asking respondents “Have you ever
thought of committing suicide?” and if so, “At what age did the thought
first occur to you?”

suicide_ideation
#> # A tibble: 391 × 4
#>    id      age censor age_now
#>    <fct> <dbl>  <dbl>   <dbl>
#>  1 1        16      0      18
#>  2 2        10      0      19
#>  3 3        16      0      19
#>  4 4        20      0      22
#>  5 6        15      0      22
#>  6 7        10      0      19
#>  7 8        22      1      22
#>  8 9        22      1      22
#>  9 10       15      0      20
#> 10 11       10      0      19
#> # ℹ 381 more rows

congresswomen: A person-level data frame with 168
rows and 5 columns containing data measuring how long all 168 women who
were elected to the U.S. House of Representatives between 1919 and 1996
remained in office. Representatives were followed for up to eight terms
or until 1998.

congresswomen
#> # A tibble: 168 × 5
#>    id    name                   terms censor democrat
#>    <fct> <chr>                  <dbl>  <dbl>    <dbl>
#>  1 1     Abzug, Bella               3      0        1
#>  2 2     Andrews, Elizabeth         1      0        1
#>  3 3     Ashbrook, Jean             1      0        0
#>  4 4     Baker, Irene               1      0        0
#>  5 5     Bentley, Helen             5      0        0
#>  6 6     Blitch, Iris               4      0        1
#>  7 7     Boggs, Corinne             8      1        1
#>  8 8     Boland, Veronica Grace     1      0        1
#>  9 9     Bolton, Frances            8      1        0
#> 10 10    Bosone, Reva               2      0        1
#> # ℹ 158 more rows
…
In the person-level format for event occurrence data, each person has
only one row of data with columns for their event time and censorship
status, and (optionally) a participant identifier variable or any other
variables of interest. This is demonstrated in the teachers
data set, A person-level data frame with 3941 rows and 3 columns:

id: Teacher ID.

years: The number of years between a teacher’s dates of
hire and departure from the Michigan public schools.

censor: Censoring status.

teachers
#> # A tibble: 3,941 × 3
#>    id    years censor
#>    <fct> <dbl>  <dbl>
#>  1 1         1      0
#>  2 2         2      0
#>  3 3         1      0
#>  4 4         1      0
#>  5 5        12      1
#>  6 6         1      0
#>  7 7        12      1
#>  8 8         1      0
#>  9 9         2      0
#> 10 10        2      0
#> # ℹ 3,931 more rows
…
teachers_pp <- teachers |>
  group_by(id) |>
  reframe(
    year = 1:years,
    event = if_else(year == years & censor == 0, true = 1, false = 0)
  )

teachers_pp
#> # A tibble: 24,875 × 3
#>    id     year event
#>    <fct> <int> <dbl>
#>  1 1         1     1
#>  2 2         1     0
#>  3 2         2     1
#>  4 3         1     1
#>  5 4         1     1
#>  6 5         1     0
#>  7 5         2     0
#>  8 5         3     0
#>  9 5         4     0
#> 10 5         5     0
#> # ℹ 24,865 more rows

Following similar logic, we can use the summarise()
function from the dplyr package to convert a person-period data set to
person-level data set.

teachers_pl <- teachers_pp |>
  group_by(id) |>
  summarise(
    years = max(year),
    censor = if_else(all(event == 0), true = 1, false = 0)
  )

teachers_pl
#> # A tibble: 3,941 × 3
#>    id    years censor
#>    <fct> <int>  <dbl>
#>  1 1         1      0
#>  2 2         2      0
#>  3 3         1      0
#>  4 4         1      0
#>  5 5        12      1
#>  6 6         1      0
#>  7 7        12      1
#>  8 8         1      0
#>  9 9         2      0
#> 10 10        2      0
#> # ℹ 3,931 more rows
…
