Chapter 8: Modeling change using covariance structure analysis • alda
…
Note: Covariance Structure Analysis is just another name for
structural equation modelling (SEM).

8.1 The General Covariance Structure Model

8.2 The Basics of Latent Growth Modeling

Table 8.1, page 282:

alcohol_use_2_wide <- alcohol_use_2 |>
  pivot_wider(names_from = time, values_from = c(alcohol_use, peer_pressure))

alcohol_use_2_wide
#> # A tibble: 1,122 × 8
#>    id    female alcohol_use_0 alcohol_use_1 alcohol_use_2 peer_pressure_0
#>    <fct>  <dbl>         <dbl>         <dbl>         <dbl>           <dbl>
#>  1 1          0         0.693         0.288         0.511            0   
#>  2 2          0         0             0             0                0   
#>  3 3          0         0             0             0                0   
#>  4 4          0         0             0.511         0.511            1.10
#>  5 5          0         0.288         0             0.847            0   
#>  6 6          0         0             0             0                0   
#>  7 7          0         0.288         0.288         0                0   
#>  8 8          0         0             0             0                0   
#>  9 9          0         0             0.511         0                0   
#> 10 10         0         0.511         0.693         1.30             0   
#> # ℹ 1,112 more rows
#> # ℹ 2 more variables: peer_pressure_1 <dbl>, peer_pressure_2 <dbl>
…
