Chapter 13: Describing continuous-time event occurrence data • alda
…
For this example we use the honking data set, a
person-level data frame with 57 rows and 3 columns:

id: Participant ID.

seconds: Number of seconds to horn honking or an
alternative action.

censor: Censoring status.

honking
#> # A tibble: 57 × 3
#>    id    seconds censor
#>    <fct>   <dbl>  <dbl>
#>  1 1        2.88      0
#>  2 2        4.63      1
#>  3 3        2.36      1
#>  4 4        2.68      0
#>  5 5        2.5       0
#>  6 6        4.3       1
#>  7 7        1.86      0
#>  8 8        4.01      1
#>  9 9        1.41      0
#> 10 10       9.59      0
#> # ℹ 47 more rows
…
Note that these two methods return different standard errors: The
summary() function returns the standard error for the
survival function; however, the tidy() function returns the
standard error for the cumulative hazard (see Section 13.4), so we
need to transform it to get the standard error for the survival
function.

tidy(honking_survfit)
#> # A tibble: 56 × 8
#>     time n.risk n.event n.censor estimate std.error conf.high conf.low
#>    <dbl>  <dbl>   <dbl>    <dbl>    <dbl>     <dbl>     <dbl>    <dbl>
#>  1  1.41     57       1        1    0.982    0.0177     1        0.949
#>  2  1.51     55       1        0    0.965    0.0255     1        0.918
#>  3  1.67     54       1        0    0.947    0.0316     1        0.890
#>  4  1.68     53       1        0    0.929    0.0369     0.999    0.864
#>  5  1.86     52       1        0    0.911    0.0417     0.989    0.840
#>  6  2.12     51       1        0    0.893    0.0462     0.978    0.816
#>  7  2.19     50       1        0    0.875    0.0504     0.966    0.793
#>  8  2.36     49       0        1    0.875    0.0504     0.966    0.793
#>  9  2.48     48       1        0    0.857    0.0546     0.954    0.770
#> 10  2.5      47       1        0    0.839    0.0587     0.941    0.748
#> # ℹ 46 more rows
…
In Section 13.6 Singer and Willett (2003) examine and describe the
survival functions, cumulative hazard functions, and kernel-smoothed
hazard functions from four studies that differ by their type of target
event, metric for clocking time, and underlying profile of risk:

alcohol_relapse: A person-level data frame with 89
rows and 3 columns containing a subset of data from Cooney and
colleagues (1991), who measured weeks to first “heavy drinking” day in a
sample of 89 recently treated alcoholics. Individuals were followed for
up to two years (around 104.286 weeks) or until they relapsed.

alcohol_relapse
#> # A tibble: 89 × 3
#>    id    weeks censor
#>    <fct> <dbl>  <dbl>
#>  1 1     0.714      0
#>  2 2     0.714      0
#>  3 3     1.14       0
#>  4 4     1.43       0
#>  5 5     1.71       0
#>  6 6     1.71       0
#>  7 7     2.14       0
#>  8 8     2.71       0
#>  9 9     3.86       0
#> 10 10    4.14       0
#> # ℹ 79 more rows

judges: A person-level data frame with 109 rows and
7 columns containing data from Zorn and Van Winkle (2000) measuring how
long all 107 justices appointed to the U.S. Supreme Court between 1789
and 1980 remained in their position.

judges
#> # A tibble: 109 × 7
#>    id    tenure  dead retired left_appointment appointment_age appointment_year
#>    <fct>  <dbl> <dbl>   <dbl>            <dbl>           <dbl>            <dbl>
#>  1 1          1     0       1                1              50             1789
#>  2 2          6     0       1                1              57             1789
#>  3 3          6     0       1                1              44             1789
#>  4 4          9     1       0                1              47             1789
#>  5 5         21     1       0                1              57             1789
#>  6 6          9     1       0                1              38             1790
#>  7 7          1     0       1                1              59             1791
#>  8 8         13     1       0                1              47             1793
#>  9 9          4     0       1                1              51             1796
#> 10 10        15     1       0                1              55             1796
#> # ℹ 99 more rows

first_depression_2: A person-level data frame with
2974 rows and 3 columns containing data from Sorenson, Rutter, and
Aneshensel (1991), who measured age of first depressive episode in a
sample of 2974 adults. Age of first depressive episode was measured by
asking respondents whether and, if so, at what age they first
experienced a depressive episode.

first_depression_2
#> # A tibble: 2,974 × 3
#>    id      age censor
#>    <fct> <dbl>  <dbl>
#>  1 1         4      0
#>  2 2         6      0
#>  3 3         8      0
#>  4 4         8      0
#>  5 5         9      0
#>  6 6         9      0
#>  7 7        10      0
#>  8 8        10      0
#>  9 9        11      0
#> 10 10       12      0
#> # ℹ 2,964 more rows

health_workers: A person-level data frame with 2074
rows and 3 columns containing a subset of data from Singer and
colleagues (1998), who measured length of employment in a sample of 2074
health care workers hired by community and migrant health centres.
Health care workers were followed for up to 33 months or until
termination of employment.

health_workers
#> # A tibble: 2,074 × 3
#>    id    weeks censor
#>    <fct> <dbl>  <dbl>
#>  1 1      0.14      0
#>  2 2      0.42      1
#>  3 3      1         0
#>  4 4      1.28      1
#>  5 5      1.28      1
#>  6 6      1.71      1
#>  7 7      1.85      1
#>  8 8      1.85      1
#>  9 9      1.85      1
#> 10 10     2         1
#> # ℹ 2,064 more rows
…
study_lifetables <- study_survfit |>
  map(
    \(.survfit) {
      .survfit |>
        survfit0() |>
        tidy() |>
        mutate(cumhaz.estimate = -log(estimate)) |>
        select(time, surv.estimate = estimate, cumhaz.estimate)
    }
  )

study_lifetables
#> $alcohol_relapse
#> # A tibble: 65 × 3
#>     time surv.estimate cumhaz.estimate
#>    <dbl>         <dbl>           <dbl>
#>  1 0             1              0     
#>  2 0.714         0.978          0.0227
#>  3 1.14          0.966          0.0343
#>  4 1.43          0.955          0.0460
#>  5 1.71          0.933          0.0698
#>  6 2.14          0.921          0.0819
#>  7 2.71          0.910          0.0942
#>  8 3.86          0.899          0.107 
#>  9 4.14          0.888          0.119 
#> 10 4.57          0.876          0.132 
#> # ℹ 55 more rows
#> 
#> $judges
#> # A tibble: 34 × 3
#>     time surv.estimate cumhaz.estimate
#>    <dbl>         <dbl>           <dbl>
#>  1     0         1              0     
#>  2     1         1              0     
#>  3     2         0.981          0.0190
#>  4     3         0.981          0.0190
#>  5     4         0.972          0.0288
#>  6     5         0.932          0.0700
#>  7     6         0.902          0.103 
#>  8     7         0.870          0.140 
#>  9     8         0.859          0.152 
#> 10     9         0.825          0.192 
#> # ℹ 24 more rows
#> 
#> $first_depression
#> # A tibble: 85 × 3
#>     time surv.estimate cumhaz.estimate
#>    <dbl>         <dbl>           <dbl>
#>  1     0         1            0       
#>  2     4         1.00         0.000336
#>  3     6         0.999        0.000673
#>  4     8         0.999        0.00135 
#>  5     9         0.998        0.00202 
#>  6    10         0.997        0.00269 
#>  7    11         0.997        0.00303 
#>  8    12         0.996        0.00371 
#>  9    13         0.994        0.00607 
#> 10    14         0.993        0.00742 
#> # ℹ 75 more rows
#> 
#> $health_workers
#> # A tibble: 649 × 3
#>     time surv.estimate cumhaz.estimate
#>    <dbl>         <dbl>           <dbl>
#>  1  0            1            0       
#>  2  0.14         1.00         0.000482
#>  3  0.42         1.00         0.000482
#>  4  1            0.999        0.000965
#>  5  1.28         0.999        0.000965
#>  6  1.71         0.999        0.000965
#>  7  1.85         0.999        0.000965
#>  8  2            0.999        0.000965
#>  9  2.14         0.999        0.000965
#> 10  2.28         0.999        0.000965
#> # ℹ 639 more rows
…
    kernel_smoothed_hazard |>
      tidy() |>
      rename(smoothhaz.estimate = estimate)
  }
)

study_smoothhaz
#> $alcohol_relapse
#> # A tibble: 101 × 2
#>     time smoothhaz.estimate
#>    <dbl>              <dbl>
#>  1  12.7             0.0343
#>  2  13.5             0.0344
#>  3  14.2             0.0344
#>  4  15.0             0.0344
#>  5  15.8             0.0340
#>  6  16.5             0.0335
#>  7  17.3             0.0329
#>  8  18.0             0.0320
#>  9  18.8             0.0309
#> 10  19.6             0.0295
#> # ℹ 91 more rows
#> 
#> $judges
#> # A tibble: 101 × 2
#>     time smoothhaz.estimate
#>    <dbl>              <dbl>
#>  1  7                0.0242
#>  2  7.22             0.0241
#>  3  7.44             0.0240
#>  4  7.66             0.0237
#>  5  7.88             0.0234
#>  6  8.1              0.0232
#>  7  8.32             0.0232
#>  8  8.54             0.0230
#>  9  8.76             0.0228
#> 10  8.98             0.0223
#> # ℹ 91 more rows
#> 
#> $first_depression
#> # A tibble: 101 × 2
#>     time smoothhaz.estimate
#>    <dbl>              <dbl>
#>  1  11              0.00113
#>  2  11.4            0.00122
#>  3  11.7            0.00131
#>  4  12.1            0.00139
#>  5  12.4            0.00149
#>  6  12.8            0.00158
#>  7  13.2            0.00167
#>  8  13.5            0.00176
#>  9  13.9            0.00184
#> 10  14.2            0.00193
#> # ℹ 91 more rows
#> 
#> $health_workers
#> # A tibble: 101 × 2
#>     time smoothhaz.estimate
#>    <dbl>              <dbl>
#>  1  7.14            0.00213
#>  2  8.38            0.00240
#>  3  9.63            0.00255
#>  4 10.9             0.00262
#>  5 12.1             0.00262
#>  6 13.4             0.00261
#>  7 14.6             0.00258
#>  8 15.9             0.00247
#>  9 17.1             0.00236
#> 10 18.3             0.00230
#> # ℹ 91 more rows
Third, we will join the survival and cumulative hazard function data
frames with the kernel-smoothed hazard function data frames.

study_functions <- map2(
  study_lifetables, study_smoothhaz,
  \(.x, .y) {
    .x |>
      full_join(.y) |>
      arrange(time)
  }
)

study_functions
#> $alcohol_relapse
#> # A tibble: 165 × 4
#>     time surv.estimate cumhaz.estimate smoothhaz.estimate
#>    <dbl>         <dbl>           <dbl>              <dbl>
#>  1 0             1              0                      NA
#>  2 0.714         0.978          0.0227                 NA
#>  3 1.14          0.966          0.0343                 NA
#>  4 1.43          0.955          0.0460                 NA
#>  5 1.71          0.933          0.0698                 NA
#>  6 2.14          0.921          0.0819                 NA
#>  7 2.71          0.910          0.0942                 NA
#>  8 3.86          0.899          0.107                  NA
#>  9 4.14          0.888          0.119                  NA
#> 10 4.57          0.876          0.132                  NA
#> # ℹ 155 more rows
#> 
#> $judges
#> # A tibble: 132 × 4
#>     time surv.estimate cumhaz.estimate smoothhaz.estimate
#>    <dbl>         <dbl>           <dbl>              <dbl>
#>  1  0            1              0                 NA     
#>  2  1            1              0                 NA     
#>  3  2            0.981          0.0190            NA     
#>  4  3            0.981          0.0190            NA     
#>  5  4            0.972          0.0288            NA     
#>  6  5            0.932          0.0700            NA     
#>  7  6            0.902          0.103             NA     
#>  8  7            0.870          0.140              0.0242
#>  9  7.22        NA             NA                  0.0241
#> 10  7.44        NA             NA                  0.0240
#> # ℹ 122 more rows
#> 
#> $first_depression
#> # A tibble: 181 × 4
#>     time surv.estimate cumhaz.estimate smoothhaz.estimate
#>    <dbl>         <dbl>           <dbl>              <dbl>
#>  1   0           1            0                  NA      
#>  2   4           1.00         0.000336           NA      
#>  3   6           0.999        0.000673           NA      
#>  4   8           0.999        0.00135            NA      
#>  5   9           0.998        0.00202            NA      
#>  6  10           0.997        0.00269            NA      
#>  7  11           0.997        0.00303             0.00113
#>  8  11.4        NA           NA                   0.00122
#>  9  11.7        NA           NA                   0.00131
#> 10  12           0.996        0.00371            NA      
#> # ℹ 171 more rows
#> 
#> $health_workers
#> # A tibble: 749 × 4
#>     time surv.estimate cumhaz.estimate smoothhaz.estimate
#>    <dbl>         <dbl>           <dbl>              <dbl>
#>  1  0            1            0                        NA
#>  2  0.14         1.00         0.000482                 NA
#>  3  0.42         1.00         0.000482                 NA
#>  4  1            0.999        0.000965                 NA
#>  5  1.28         0.999        0.000965                 NA
#>  6  1.71         0.999        0.000965                 NA
#>  7  1.85         0.999        0.000965                 NA
#>  8  2            0.999        0.000965                 NA
#>  9  2.14         0.999        0.000965                 NA
#> 10  2.28         0.999        0.000965                 NA
#> # ℹ 739 more rows
…
