Chapter 6: Modeling Discontinuous and Nonlinear Change • alda
…
black: Binary indicator for whether the dropout is
black.

hispanic: Binary indicator for whether the dropout is
hispanic.

highest_grade: Highest grade completed.

unemployment_rate: Unemployment rate in the local
geographic area.

dropout_wages
#> # A tibble: 6,402 × 9
#>    id    log_wages experience   ged postsecondary_education black hispanic
#>    <fct>     <dbl>      <dbl> <dbl>                   <dbl> <dbl>    <dbl>
#>  1 31         1.49      0.015     1                   0.015     0        1
#>  2 31         1.43      0.715     1                   0.715     0        1
#>  3 31         1.47      1.73      1                   1.73      0        1
#>  4 31         1.75      2.77      1                   2.77      0        1
#>  5 31         1.93      3.93      1                   3.93      0        1
#>  6 31         1.71      4.95      1                   4.95      0        1
#>  7 31         2.09      5.96      1                   5.96      0        1
#>  8 31         2.13      6.98      1                   6.98      0        1
#>  9 36         1.98      0.315     1                   0.315     0        0
#> 10 36         1.80      0.983     1                   0.983     0        0
#> # ℹ 6,392 more rows
#> # ℹ 2 more variables: highest_grade <dbl>, unemployment_rate <dbl>
…
child_of_alcoholic: Binary indicator for whether the
adolescent is a child of an alcoholic parent.

male: Binary indicator for whether the adolescent is a
male.

alcohol_use: Square root of the summed scores of four
eight-point items measuring frequency of alcohol use.

peer_alcohol_use: Square root of the summed scores of
two six-point items measuring frequency of peer alcohol use.

alcohol_use_1
#> # A tibble: 246 × 6
#>    id      age child_of_alcoholic  male alcohol_use peer_alcohol_use
#>    <fct> <dbl>              <dbl> <dbl>       <dbl>            <dbl>
#>  1 1        14                  1     0        1.73            1.26 
#>  2 1        15                  1     0        2               1.26 
#>  3 1        16                  1     0        2               1.26 
#>  4 2        14                  1     1        0               0.894
#>  5 2        15                  1     1        0               0.894
#>  6 2        16                  1     1        1               0.894
#>  7 3        14                  1     1        1               0.894
#>  8 3        15                  1     1        2               0.894
#>  9 3        16                  1     1        3.32            0.894
#> 10 4        14                  1     1        0               1.79 
#> # ℹ 236 more rows

Note that the outcome variable, alcohol_use, uses a
square root metric—meaning that a square root
transformation was previously applied to the raw scores. To
return the alcohol_use scores to their original metric, we
can back-transform them by applying the inverse of the
transformation. In this case, by squaring the square root transformed
values.

alcohol_use_1 <- alcohol_use_1 |>
  mutate(alcohol_use_raw = alcohol_use^2, .before = alcohol_use) |>
  rename(alcohol_use_sqrt = alcohol_use)

alcohol_use_1
#> # A tibble: 246 × 7
#>    id      age child_of_alcoholic  male alcohol_use_raw alcohol_use_sqrt
#>    <fct> <dbl>              <dbl> <dbl>           <dbl>            <dbl>
#>  1 1        14                  1     0            3.00             1.73
#>  2 1        15                  1     0            4                2   
#>  3 1        16                  1     0            4                2   
#>  4 2        14                  1     1            0                0   
#>  5 2        15                  1     1            0                0   
#>  6 2        16                  1     1            1                1   
#>  7 3        14                  1     1            1                1   
#>  8 3        15                  1     1            4                2   
#>  9 3        16                  1     1           11.0              3.32
#> 10 4        14                  1     1            0                0   
#> # ℹ 236 more rows
#> # ℹ 1 more variable: peer_alcohol_use <dbl>
…
id: Child ID.

time: Time of measurement.

externalizing_behaviour: Sum of scores on Achenbach’s
(1991) Child Behavior Checklist. Scores range from 0 to 68

female: Binary indicator for whether the adolescent is
a female.

grade: Grade year.

externalizing_behaviour
#> # A tibble: 270 × 5
#>    id    externalizing_behaviour female  time grade
#>    <fct>                   <dbl>  <dbl> <dbl> <dbl>
#>  1 1                          50      0     0     1
#>  2 1                          57      0     1     2
#>  3 1                          51      0     2     3
#>  4 1                          48      0     3     4
#>  5 1                          43      0     4     5
#>  6 1                          19      0     5     6
#>  7 2                           4      0     0     1
#>  8 2                           6      0     1     2
#>  9 2                           3      0     2     3
#> 10 2                           3      0     3     4
#> # ℹ 260 more rows
…
id: Child ID.

game: Game number. Each child played up to a maximum of
27 games.

nmoves: The number of moves completed before making a
catastrophic error.

reading_score: Score on an unnamed standardized reading
test.

cognitive_growth
#> # A tibble: 445 × 4
#>    id     game nmoves reading_score
#>    <fct> <dbl>  <dbl>         <dbl>
#>  1 1         1      4           1.4
#>  2 1         2      7           1.4
#>  3 1         3      8           1.4
#>  4 1         4      3           1.4
#>  5 1         5      3           1.4
#>  6 1         6      3           1.4
#>  7 1         7      7           1.4
#>  8 1         8      6           1.4
#>  9 1         9      3           1.4
#> 10 1        10      7           1.4
#> # ℹ 435 more rows
…
