Chapter 12: Extending the discrete-time hazard model • alda
…
For this example we use the tenure data set, a
person-level data frame with 260 rows and 3 columns:

id: Participant ID.

years: Number of years to receiving tenure.

censor: Censoring status.

tenure
#> # A tibble: 260 × 3
#>    id    years censor
#>    <fct> <dbl>  <dbl>
#>  1 111       5      0
#>  2 211       6      0
#>  3 311       8      1
#>  4 411       9      0
#>  5 511       3      0
#>  6 611       6      0
#>  7 711       5      0
#>  8 811       5      1
#>  9 911       7      0
#> 10 1011      8      0
#> # ℹ 250 more rows
…
tenure_pp <- tenure |>
  group_by(id) |>
  reframe(
    year = 1:max(years),
    event = if_else(year == years & censor == 0, 1, 0)
  )

tenure_pp
#> # A tibble: 1,474 × 3
#>    id     year event
#>    <fct> <int> <dbl>
#>  1 111       1     0
#>  2 111       2     0
#>  3 111       3     0
#>  4 111       4     0
#>  5 111       5     1
#>  6 211       1     0
#>  7 211       2     0
#>  8 211       3     0
#>  9 211       4     0
#> 10 211       5     0
#> # ℹ 1,464 more rows
…
grade: Grade year of first sexual intercourse.

censor: Censoring status.

parental_transition: Binary indicator for whether the
adolescent experienced a parental transition (where their parents
separated or repartnered).

parental_antisociality: Composite score across four
indicators measuring parents’ level of antisocial behaviour during the
child’s formative years.

first_sex
#> # A tibble: 180 × 5
#>    id    grade censor parental_transition parental_antisociality
#>    <fct> <dbl>  <dbl>               <dbl>                  <dbl>
#>  1 1         9      0                   0                  1.98 
#>  2 2        12      1                   1                 -0.545
#>  3 3        12      1                   0                 -1.40 
#>  4 5        12      0                   1                  0.974
#>  5 6        11      0                   0                 -0.636
#>  6 7         9      0                   1                 -0.243
#>  7 9        12      1                   0                 -0.869
#>  8 10       11      0                   0                  0.454
#>  9 11       12      1                   1                  0.802
#> 10 12       11      0                   1                 -0.746
#> # ℹ 170 more rows
…
first_sex_pp <- first_sex |>
  rename(grades = grade) |>
  group_by(id) |>
  reframe(
    grade = 7:max(grades),
    event = if_else(grade == grades & censor == 0, 1, 0),
    parental_transition,
    parental_antisociality
  )

first_sex_pp
#> # A tibble: 822 × 5
#>    id    grade event parental_transition parental_antisociality
#>    <fct> <int> <dbl>               <dbl>                  <dbl>
#>  1 1         7     0                   0                  1.98 
#>  2 1         8     0                   0                  1.98 
#>  3 1         9     1                   0                  1.98 
#>  4 2         7     0                   1                 -0.545
#>  5 2         8     0                   1                 -0.545
#>  6 2         9     0                   1                 -0.545
#>  7 2        10     0                   1                 -0.545
#>  8 2        11     0                   1                 -0.545
#>  9 2        12     0                   1                 -0.545
#> 10 3         7     0                   0                 -1.40 
#> # ℹ 812 more rows
…
event: Binary indicator for whether and when the adult
experienced a depressive episode.

censor: Censoring status.

parental_divorce: Binary indicator for whether the
adult’s parents divorced at this or any previous age.

female: Binary indicator for whether the adult is a
female.

siblings: Number of siblings.

first_depression_1
#> # A tibble: 36,997 × 7
#>    id      age event censor parental_divorce female siblings
#>    <fct> <dbl> <dbl>  <dbl>            <dbl>  <dbl>    <dbl>
#>  1 1         4     0      1                0      1        6
#>  2 1         5     0      1                0      1        6
#>  3 1         6     0      1                0      1        6
#>  4 1         7     0      1                0      1        6
#>  5 1         8     0      1                0      1        6
#>  6 1         9     0      1                0      1        6
#>  7 1        10     0      1                0      1        6
#>  8 1        11     0      1                0      1        6
#>  9 1        12     0      1                0      1        6
#> 10 1        13     0      1                0      1        6
#> # ℹ 36,987 more rows
…
id: Participant ID.

age: Age each record corresponds to.

event: Binary indicator for whether the adolescent was
arrested.- censor: Censoring status.

abused: Binary indicator for whether the adolescent was
abused.

black: Binary indicator for whether the adolescent is
black.

first_arrest
#> # A tibble: 15,834 × 6
#>    id      age event censor abused black
#>    <fct> <dbl> <dbl>  <dbl>  <dbl> <dbl>
#>  1 1         8     0      0      0     0
#>  2 1         9     0      0      0     0
#>  3 1        10     0      0      0     0
#>  4 1        11     0      0      0     0
#>  5 1        12     0      0      0     0
#>  6 1        13     0      0      0     0
#>  7 1        14     0      0      0     0
#>  8 1        15     1      0      0     0
#>  9 2         8     0      1      1     0
#> 10 2         9     0      1      1     0
#> # ℹ 15,824 more rows
…
first_arrest_lifetable
#> # A tibble: 39 × 8
#> # Groups:   abused, black [4]
#>    abused black   age n.risk n.event n.censor haz.estimate log_odds.estimate
#>    <lgl>  <lgl> <dbl>  <int>   <int>    <int>        <dbl>             <dbl>
#>  1 FALSE  FALSE     8    434       1      433      0.00230             -6.07
#>  2 FALSE  FALSE    10    433       2      431      0.00462             -5.37
#>  3 FALSE  FALSE    11    431       5      426      0.0116              -4.45
#>  4 FALSE  FALSE    13    426       7      419      0.0164              -4.09
#>  5 FALSE  FALSE    14    419       9      410      0.0215              -3.82
#>  6 FALSE  FALSE    15    410      19      391      0.0463              -3.02
#>  7 FALSE  FALSE    16    391      10      381      0.0256              -3.64
#>  8 FALSE  FALSE    17    381      10      371      0.0262              -3.61
#>  9 FALSE  FALSE    18    368       3      365      0.00815             -4.80
#> 10 FALSE  TRUE      9    232       1      231      0.00431             -5.44
#> # ℹ 29 more rows
…
id: Participant ID.

term: Academic term each record corresponds to.

event: Binary indicator for whether the student stopped
enrolling in mathematics courses at a given term.

censor: Censoring status.

woman: Binary indicators for whether the student
identified as a woman.

math_dropout
#> # A tibble: 9,558 × 5
#>    id      term event censor woman
#>    <fct>  <dbl> <dbl>  <dbl> <dbl>
#>  1 201303     1     0      0     1
#>  2 201303     2     1      0     1
#>  3 201304     1     0      0     1
#>  4 201304     2     0      0     1
#>  5 201304     3     1      0     1
#>  6 201305     1     0      1     1
#>  7 201305     2     0      1     1
#>  8 201311     1     0      1     0
#>  9 201311     2     0      1     0
#> 10 201311     3     0      1     0
#> # ℹ 9,548 more rows
…
For this example we return to the teachers data set
introduced in Chapter 9, a person-level data frame with 3941 rows and 3
columns:

id: Teacher ID.

years: The number of years between a teacher’s dates of
hire and departure from the Michigan public schools.

censor: Censoring status.

teachers
#> # A tibble: 3,941 × 3
#>    id    years censor
#>    <fct> <dbl>  <dbl>
#>  1 1         1      0
#>  2 2         2      0
#>  3 3         1      0
#>  4 4         1      0
#>  5 5        12      1
#>  6 6         1      0
#>  7 7        12      1
#>  8 8         1      0
#>  9 9         2      0
#> 10 10        2      0
#> # ℹ 3,931 more rows

We first need to convert the person-level teachers data
set to a person-period data set.

teachers_pp <- teachers |>
  group_by(id) |>
  reframe(
    year = 1:years,
    event = if_else(year == years & censor == 0, true = 1, false = 0)
  )

teachers_pp
#> # A tibble: 24,875 × 3
#>    id     year event
#>    <fct> <int> <dbl>
#>  1 1         1     1
#>  2 2         1     0
#>  3 2         2     1
#>  4 3         1     1
#>  5 4         1     1
#>  6 5         1     0
#>  7 5         2     0
#>  8 5         3     0
#>  9 5         4     0
#> 10 5         5     0
#> # ℹ 24,865 more rows
…
first_sex_fit_residuals <- first_sex_fit |>
  augment(data = first_sex_pp, type.residuals = "deviance") |>
  mutate(
    ss.deviance = sum(.resid^2),
    censor = if_else(any(event == 1), 0, 1),
    .by = id
  ) |>
  select(id:parental_antisociality, censor, deviance = .resid, ss.deviance, -event)

first_sex_fit_residuals
#> # A tibble: 822 × 7
#>    id    grade parental_transition parental_antisociality censor deviance
#>    <fct> <int>               <dbl>                  <dbl>  <dbl>    <dbl>
#>  1 1         7                   0                  1.98       0   -0.436
#>  2 1         8                   0                  1.98       0   -0.312
#>  3 1         9                   0                  1.98       0    1.87 
#>  4 2         7                   1                 -0.545      1   -0.418
#>  5 2         8                   1                 -0.545      1   -0.299
#>  6 2         9                   1                 -0.545      1   -0.592
#>  7 2        10                   1                 -0.545      1   -0.727
#>  8 2        11                   1                 -0.545      1   -0.785
#>  9 2        12                   1                 -0.545      1   -0.969
#> 10 3         7                   0                 -1.40       1   -0.268
#> # ℹ 812 more rows
#> # ℹ 1 more variable: ss.deviance <dbl>
…
