Chapter 11: Fitting basic discrete-time hazard models • alda
…
grade: Grade year of first sexual intercourse.

censor: Censoring status.

parental_transition: Binary indicator for whether the
adolescent experienced a parental transition (where their parents
separated or repartnered).

parental_antisociality: Composite score across four
indicators measuring parents’ level of antisocial behaviour during the
child’s formative years.

first_sex
#> # A tibble: 180 × 5
#>    id    grade censor parental_transition parental_antisociality
#>    <fct> <dbl>  <dbl>               <dbl>                  <dbl>
#>  1 1         9      0                   0                  1.98 
#>  2 2        12      1                   1                 -0.545
#>  3 3        12      1                   0                 -1.40 
#>  4 5        12      0                   1                  0.974
#>  5 6        11      0                   0                 -0.636
#>  6 7         9      0                   1                 -0.243
#>  7 9        12      1                   0                 -0.869
#>  8 10       11      0                   0                  0.454
#>  9 11       12      1                   1                  0.802
#> 10 12       11      0                   1                 -0.746
#> # ℹ 170 more rows
…
first_sex_pp <- first_sex |>
  rename(grades = grade) |>
  group_by(id) |>
  reframe(
    grade = 7:max(grades),
    event = if_else(grade == grades & censor == 0, 1, 0),
    parental_transition,
    parental_antisociality
  )

first_sex_pp
#> # A tibble: 822 × 5
#>    id    grade event parental_transition parental_antisociality
#>    <fct> <int> <dbl>               <dbl>                  <dbl>
#>  1 1         7     0                   0                  1.98 
#>  2 1         8     0                   0                  1.98 
#>  3 1         9     1                   0                  1.98 
#>  4 2         7     0                   1                 -0.545
#>  5 2         8     0                   1                 -0.545
#>  6 2         9     0                   1                 -0.545
#>  7 2        10     0                   1                 -0.545
#>  8 2        11     0                   1                 -0.545
#>  9 2        12     0                   1                 -0.545
#> 10 3         7     0                   0                 -1.40 
#> # ℹ 812 more rows
…
In short, this approach is possible because of an equivalence between
discrete-time and independent Bernoulli likelihood functions, which
allows maximum likelihood estimates of the discrete-time hazard model’s
intercept parameters \([\alpha_1, \alpha_2,
\dots, \alpha_J]\) and slope parameters \([\beta_1, \beta_2, \dots, \beta_P]\)—and
therefore the hazard probability, \(h(t_{ij})\)—to be obtained by appropriately
applying standard logistic regression routines to the person-period data
set.

For this example, we return to the first_sex_pp
person-period data set created in Section 11.1.

first_sex_pp
#> # A tibble: 822 × 5
#>    id    grade event parental_transition parental_antisociality
#>    <fct> <int> <dbl>               <dbl>                  <dbl>
#>  1 1         7     0                   0                  1.98 
#>  2 1         8     0                   0                  1.98 
#>  3 1         9     1                   0                  1.98 
#>  4 2         7     0                   1                 -0.545
#>  5 2         8     0                   1                 -0.545
#>  6 2         9     0                   1                 -0.545
#>  7 2        10     0                   1                 -0.545
#>  8 2        11     0                   1                 -0.545
#>  9 2        12     0                   1                 -0.545
#> 10 3         7     0                   0                 -1.40 
#> # ℹ 812 more rows
…
prototypical_first_sex_D
#> # A tibble: 42 × 6
#>       id grade parental_transition parental_antisociality hazard survival
#>    <int> <dbl> <fct>               <fct>                   <dbl>    <dbl>
#>  1     1     7 0                   -1                     0.0396    0.960
#>  2     2     7 0                   0                      0.0525    0.910
#>  3     3     7 0                   1                      0.0693    0.847
#>  4     4     7 1                   -1                     0.0738    0.926
#>  5     5     7 1                   0                      0.0969    0.836
#>  6     6     7 1                   1                      0.126     0.731
#>  7     1     8 0                   -1                     0.0202    0.830
#>  8     2     8 0                   0                      0.0270    0.807
#>  9     3     8 0                   1                      0.0360    0.778
#> 10     4     8 1                   -1                     0.0384    0.703
#> # ℹ 32 more rows
…
