Chapter 9: A framework for investigating event occurrence • alda
…
alcohol_relapse: A person-level data frame with 89
rows and 3 columns containing a subset of data from Cooney and
colleagues (1991), who measured whether and (if so)
when 89 recently treated alcoholics first relapsed to alcohol
use.

alcohol_relapse
#> # A tibble: 89 × 3
#>    id    weeks censor
#>    <fct> <dbl>  <dbl>
#>  1 1     0.714      0
#>  2 2     0.714      0
#>  3 3     1.14       0
#>  4 4     1.43       0
#>  5 5     1.71       0
#>  6 6     1.71       0
#>  7 7     2.14       0
#>  8 8     2.71       0
#>  9 9     3.86       0
#> 10 10    4.14       0
#> # ℹ 79 more rows

teachers: A person-level data frame with 3941 rows
and 3 columns containing a subset of data from Singer (1993), who
measured whether and (if so) when 3941 newly hired
special educators in Michigan first stopped teaching in the state.

teachers
#> # A tibble: 3,941 × 3
#>    id    years censor
#>    <fct> <dbl>  <dbl>
#>  1 1         1      0
#>  2 2         2      0
#>  3 3         1      0
#>  4 4         1      0
#>  5 5        12      1
#>  6 6         1      0
#>  7 7        12      1
#>  8 8         1      0
#>  9 9         2      0
#> 10 10        2      0
#> # ℹ 3,931 more rows

suicide_ideation: A person-level data frame with 391
rows and 4 columns containing a subset of data from Bolger and
colleagues (1989), who measured whether and (if so)
when 391 undergraduate students first experienced suicide
ideation.

suicide_ideation
#> # A tibble: 391 × 4
#>    id     time censor   age
#>    <fct> <dbl>  <dbl> <dbl>
#>  1 1        16      0    18
#>  2 2        10      0    19
#>  3 3        16      0    19
#>  4 4        20      0    22
#>  5 6        15      0    22
#>  6 7        10      0    19
#>  7 8        22      1    22
#>  8 9        22      1    22
#>  9 10       15      0    20
#> 10 11       10      0    19
#> # ℹ 381 more rows
…
