Chapter 14: Fitting the Cox regression model • alda
…
months: Number of months to rearrest, on the scale of
an “average” month (with 30.4375 days).

censor: Censoring status.

person_crime: Committed a person-related crime

property_crime: Binary indicator for whether the inmate
committed a property crime.

age: Centred age at time of release.

rearrest
#> # A tibble: 194 × 7
#>    id     days months censor person_crime property_crime    age
#>    <fct> <dbl>  <dbl>  <dbl>        <dbl>          <dbl>  <dbl>
#>  1 1         2 0.0657      0            1              1  -1.68
#>  2 2         4 0.131       0            0              1 -10.5 
#>  3 3         7 0.230       0            1              1  -4.43
#>  4 4         9 0.296       0            0              1 -11.3 
#>  5 5         9 0.296       0            1              1  -7.16
#>  6 6        10 0.329       0            1              0  -2.87
#>  7 7        15 0.493       0            0              1  -6.43
#>  8 8        19 0.624       1            1              1  22.5 
#>  9 9        21 0.690       0            1              1 -12.5 
#> 10 10       22 0.723       0            1              1  -9.41
#> # ℹ 184 more rows
…
