Chapter 15: Extending the Cox regression model • alda
…
  used_cocaine = event(used_cocaine_age, 1 - censor),
  used_marijuana = tdc(used_marijuana_age),
  used_drugs = tdc(used_drugs_age),
  options = list(
    tstartname = "age_start",
    tstopname = "age_end"
  )
) |> as_tibble() |> arrange(id)
#> Warning: Unknown or uninitialised column: `tstop`.
#> Warning: Unknown or uninitialised column: `tstart`.
#> Warning in tmerge(first_cocaine, first_cocaine, id = id, used_cocaine =
#> event(used_cocaine_age, : replacement of variable 'used_marijuana'
#> Warning in tmerge(first_cocaine, first_cocaine, id = id, used_cocaine =
#> event(used_cocaine_age, : replacement of variable 'used_drugs'
#> # A tibble: 3,086 × 18
#>    id    used_cocaine_age censor birthyr early_marijuana_use early_drug_use
#>    <fct>            <dbl>  <dbl>   <dbl>               <dbl>          <dbl>
#>  1 5                   41      1       0                   0              0
#>  2 5                   41      1       0                   0              0
#>  3 5                   41      1       0                   0              0
#>  4 8                   32      1      10                   0              0
#>  5 9                   36      1       5                   0              0
#>  6 9                   36      1       5                   0              0
#>  7 11                  41      1       0                   0              0
#>  8 12                  32      0       4                   0              0
#>  9 12                  32      0       4                   0              0
#> 10 13                  39      1       3                   0              0
#> # ℹ 3,076 more rows
#> # ℹ 12 more variables: used_marijuana <int>, used_marijuana_age <dbl>,
#> #   sold_marijuana <dbl>, sold_marijuana_age <dbl>, used_drugs <int>,
#> #   used_drugs_age <dbl>, sold_drugs <dbl>, sold_drugs_age <dbl>, rural <dbl>,
#> #   age_start <dbl>, age_end <dbl>, used_cocaine <dbl>
…
cocaine_relapse_2_prevweek <- cocaine_relapse_2 |>
  group_by(id) |>
  mutate(
    mood_previous_week = lag(mood, default = unique(base_mood)),
    mood_previous_week_fill = vec_fill_missing(
      mood_previous_week, direction = "down"
    )
  )

cocaine_relapse_2_prevweek
#> # A tibble: 1,248 × 9
#> # Groups:   id [104]
#>    id    censor  days needle base_mood followup  mood mood_previous_week
#>    <fct>  <dbl> <dbl>  <dbl>     <dbl>    <int> <dbl>              <dbl>
#>  1 550        1    83      1        29        1    23                 29
#>  2 550        1    83      1        29        2    27                 23
#>  3 550        1    83      1        29        3    28                 27
#>  4 550        1    83      1        29        4    31                 28
#>  5 550        1    83      1        29        5    29                 31
#>  6 550        1    83      1        29        6    32                 29
#>  7 550        1    83      1        29        7    33                 32
#>  8 550        1    83      1        29        8    28                 33
#>  9 550        1    83      1        29        9    36                 28
#> 10 550        1    83      1        29       10    33                 36
#> # ℹ 1,238 more rows
#> # ℹ 1 more variable: mood_previous_week_fill <dbl>
…
cocaine_relapse_2_prevweek_cp
#> # A tibble: 2,805 × 5
#>    id    day_start day_end event  week
#>    <fct>     <dbl>   <dbl> <dbl> <dbl>
#>  1 501           0       1     0     1
#>  2 501           1       2     0     1
#>  3 501           2       3     0     1
#>  4 501           3       4     0     1
#>  5 501           4       6     0     1
#>  6 501           6       7     0     2
#>  7 501           7       8     0     2
#>  8 501           8       9     0     2
#>  9 501           9      10     0     2
#> 10 501          10      11     0     2
#> # ℹ 2,795 more rows
…
cocaine_relapse_2_prevweek_cp <- cocaine_relapse_2_prevweek_cp |>
  left_join(
    cocaine_relapse_2_prevweek,
    by = join_by(id == id, week == followup)
  ) |>
  rename(week_mood = mood_previous_week_fill)

cocaine_relapse_2_prevweek_cp
#> # A tibble: 2,805 × 12
#>    id    day_start day_end event  week censor  days needle base_mood  mood
#>    <fct>     <dbl>   <dbl> <dbl> <dbl>  <dbl> <dbl>  <dbl>     <dbl> <dbl>
#>  1 501           0       1     0     1      0    12      1        29    34
#>  2 501           1       2     0     1      0    12      1        29    34
#>  3 501           2       3     0     1      0    12      1        29    34
#>  4 501           3       4     0     1      0    12      1        29    34
#>  5 501           4       6     0     1      0    12      1        29    34
#>  6 501           6       7     0     2      0    12      1        29    19
#>  7 501           7       8     0     2      0    12      1        29    19
#>  8 501           8       9     0     2      0    12      1        29    19
#>  9 501           9      10     0     2      0    12      1        29    19
#> 10 501          10      11     0     2      0    12      1        29    19
#> # ℹ 2,795 more rows
#> # ℹ 2 more variables: mood_previous_week <dbl>, week_mood <dbl>
…
cocaine_relapse_2_adjacent_cp
#> # A tibble: 4,948 × 9
#>    id    day_start day_end  days followup censor event needle mood_day
#>    <fct>     <dbl>   <dbl> <dbl>    <int>  <dbl> <dbl>  <dbl>    <dbl>
#>  1 501           0       1    12        1      0     0      1     29  
#>  2 501           1       2    12        1      0     0      1     29.7
#>  3 501           2       3    12        1      0     0      1     30.4
#>  4 501           3       4    12        1      0     0      1     31.1
#>  5 501           4       5    12        1      0     0      1     31.9
#>  6 501           5       6    12        1      0     0      1     32.6
#>  7 501           6       7    12        1      0     0      1     33.3
#>  8 501           7       8    12        2      0     0      1     34  
#>  9 501           8       9    12        2      0     0      1     31.9
#> 10 501           9      10    12        2      0     0      1     29.7
#> # ℹ 4,938 more rows
…
first_cocaine_model_rural <- update(
  first_cocaine_model_C, subset = rural == 1
)

# TODO: Make table.

15.3 Nonproportional Hazards Models via Interactions with Time

Table 15.4 page 566:

# TODO
psychiatric_discharge
#> # A tibble: 174 × 4
#>    id     days censor treatment_plan
#>    <fct> <dbl>  <dbl>          <dbl>
#>  1 2         3      0              1
#>  2 8        46      0              0
#>  3 73       30      0              0
#>  4 76       45      0              0
#>  5 78       22      0              0
#>  6 79       50      0              0
#>  7 81       59      0              0
#>  8 83       44      0              0
#>  9 95       44      0              1
#> 10 117      22      0              0
#> # ℹ 164 more rows
…
