Chapter 5: Treating time more flexibly • alda
…
id: Child ID.

wave: Wave of measurement.

age_group: Expected age on each measurement
occasion.

age: Age in years at time of measurement.

reading_score: Reading score on the reading subtest of
the Peabody Individual Achievement Test (PIAT).

# Table 5.1, page 141:
reading_scores
#> # A tibble: 267 × 5
#>    id     wave age_group   age reading_score
#>    <fct> <dbl>     <dbl> <dbl>         <dbl>
#>  1 1         1       6.5  6               18
#>  2 1         2       8.5  8.33            35
#>  3 1         3      10.5 10.3             59
#>  4 2         1       6.5  6               18
#>  5 2         2       8.5  8.5             25
#>  6 2         3      10.5 10.6             28
#>  7 3         1       6.5  6.08            18
#>  8 3         2       8.5  8.42            23
#>  9 3         3      10.5 10.4             32
#> 10 4         1       6.5  6               18
#> # ℹ 257 more rows
…
The values of age reflect the child’s actual age on
each measurement occasion; they are variably spaced across children and
have substantive meaning.

This demonstrates a distinctive feature of
time-unstructured data sets—the possibility to have
multiple representations of time. Thus, from the perspective of the
age_group variable, the reading_scores data
appears to be time-structured:

select(reading_scores, id, age_group, reading_score)
#> # A tibble: 267 × 3
#>    id    age_group reading_score
#>    <fct>     <dbl>         <dbl>
#>  1 1           6.5            18
#>  2 1           8.5            35
#>  3 1          10.5            59
#>  4 2           6.5            18
#>  5 2           8.5            25
#>  6 2          10.5            28
#>  7 3           6.5            18
#>  8 3           8.5            23
#>  9 3          10.5            32
#> 10 4           6.5            18
#> # ℹ 257 more rows

Whereas from the perspective of the age variable, the
reading_scores data appears to be variably spaced:

select(reading_scores, id, age, reading_score)
#> # A tibble: 267 × 3
#>    id      age reading_score
#>    <fct> <dbl>         <dbl>
#>  1 1      6               18
#>  2 1      8.33            35
#>  3 1     10.3             59
#>  4 2      6               18
#>  5 2      8.5             25
#>  6 2     10.6             28
#>  7 3      6.08            18
#>  8 3      8.42            23
#>  9 3     10.4             32
#> 10 4      6               18
#> # ℹ 257 more rows
…
black: Binary indicator for whether the dropout is
black.

hispanic: Binary indicator for whether the dropout is
hispanic.

highest_grade: Highest grade completed.

unemployment_rate: Unemployment rate in the local
geographic area.

dropout_wages
#> # A tibble: 6,402 × 9
#>    id    log_wages experience   ged postsecondary_education black hispanic
#>    <fct>     <dbl>      <dbl> <dbl>                   <dbl> <dbl>    <dbl>
#>  1 31         1.49      0.015     1                   0.015     0        1
#>  2 31         1.43      0.715     1                   0.715     0        1
#>  3 31         1.47      1.73      1                   1.73      0        1
#>  4 31         1.75      2.77      1                   2.77      0        1
#>  5 31         1.93      3.93      1                   3.93      0        1
#>  6 31         1.71      4.95      1                   4.95      0        1
#>  7 31         2.09      5.96      1                   5.96      0        1
#>  8 31         2.13      6.98      1                   6.98      0        1
#>  9 36         1.98      0.315     1                   0.315     0        0
#> 10 36         1.80      0.983     1                   0.983     0        0
#> # ℹ 6,392 more rows
#> # ℹ 2 more variables: highest_grade <dbl>, unemployment_rate <dbl>
…
Removing boundary constraints, where the software
is permitted to obtain negative variance components.

Fixing rates of change, where the model is
simplified by removing the varying slope change.

For this example we use a subset of the dropout_wages
data purposefully constructed to be severely unbalanced.

dropout_wages_subset
#> # A tibble: 257 × 5
#>    id    log_wages experience black highest_grade
#>    <fct>     <dbl>      <dbl> <dbl>         <dbl>
#>  1 206        2.03      1.87      0            10
#>  2 206        2.30      2.81      0            10
#>  3 206        2.48      4.31      0            10
#>  4 266        1.81      0.322     0             9
#>  5 304        1.84      0.58      0             8
#>  6 329        1.42      0.016     0             8
#>  7 329        1.31      0.716     0             8
#>  8 329        1.88      1.76      0             8
#>  9 336        1.89      1.91      1             8
#> 10 336        1.28      2.51      1             8
#> # ℹ 247 more rows
…
interview: Time of interview. months:
Months since job loss.

depression: Total score on the Center for Epidemiologic
Studies’ Depression (CES-D) scale (Radloff, 1977).

unemployed: Binary indicator for whether the
participant was unemployed at time of interview. Note that all
participants were unemployed at the first interview, and changes in
unemployment status were gathered during the second and third
interviews.

depression_unemployment
#> # A tibble: 674 × 5
#>    id    interview months depression unemployed
#>    <fct>     <dbl>  <dbl>      <dbl>      <dbl>
#>  1 103           1  1.15          25          1
#>  2 103           2  5.95          16          1
#>  3 103           3 12.9           33          1
#>  4 641           1  0.789         27          1
#>  5 641           2  4.86           7          0
#>  6 641           3 11.8           25          0
#>  7 741           1  1.05          40          1
#>  8 846           1  0.624          2          1
#>  9 846           2  4.93          22          1
#> 10 846           3 11.8            0          0
#> # ℹ 664 more rows
…
prototypical_depression_B |>
  pivot_longer(
    cols = c(starts_with("months"), starts_with("depression")),
    names_to = c(".value"),
    names_pattern = "(^.*(?=_))"
  ) |>
  group_by(unemployed_pattern) |>
  mutate(cid = consecutive_id(unemployed), .after = unemployed_pattern)
#> # A tibble: 24 × 5
#> # Groups:   unemployed_pattern [4]
#>    unemployed_pattern   cid unemployed months depression
#>    <fct>              <int>      <dbl>  <dbl>      <dbl>
#>  1 1-0-0                  1          1      0      17.8 
#>  2 1-0-0                  1          1      5      16.8 
#>  3 1-0-0                  2          0      5      11.7 
#>  4 1-0-0                  2          0     10      10.6 
#>  5 1-0-0                  2          0     10      10.6 
#>  6 1-0-0                  2          0     15       9.64
#>  7 1-0-1                  1          1      0      17.8 
#>  8 1-0-1                  1          1      5      16.8 
#>  9 1-0-1                  2          0      5      11.7 
#> 10 1-0-1                  2          0     10      10.6 
#> # ℹ 14 more rows
…
id: Participant ID.

wave: Wave of measurement.

day: Day of measurement.

reading: Time of day a reading was taken. 

positive_mood: Positive mood score.

treatment: Treatment condition (placebo pills = 0,
antidepressant pills = 1).

antidepressants
#> # A tibble: 1,242 × 6
#>    id     wave   day reading positive_mood treatment
#>    <fct> <dbl> <dbl> <chr>           <dbl>     <dbl>
#>  1 1         1     0 8 AM             107.         1
#>  2 1         2     0 3 PM             100          1
#>  3 1         3     0 10 PM            100          1
#>  4 1         4     1 8 AM             100          1
#>  5 1         5     1 3 PM             100          1
#>  6 1         6     1 10 PM            100          1
#>  7 1         7     2 8 AM             100          1
#>  8 1         8     2 3 PM             100          1
#>  9 1         9     2 10 PM            100          1
#> 10 1        10     3 8 AM             107.         1
#> # ℹ 1,232 more rows
…
antidepressants <- antidepressants |>
  mutate(
    time_of_day = case_when(
      reading == "8 AM" ~ 0,
      reading == "3 PM" ~ 1/3,
      reading == "10 PM" ~ 2/3
    ),
    time = day + time_of_day,
    .after = reading
  )

antidepressants
#> # A tibble: 1,242 × 8
#>    id     wave   day reading time_of_day  time positive_mood treatment
#>    <fct> <dbl> <dbl> <chr>         <dbl> <dbl>         <dbl>     <dbl>
#>  1 1         1     0 8 AM          0     0              107.         1
#>  2 1         2     0 3 PM          0.333 0.333          100          1
#>  3 1         3     0 10 PM         0.667 0.667          100          1
#>  4 1         4     1 8 AM          0     1              100          1
#>  5 1         5     1 3 PM          0.333 1.33           100          1
#>  6 1         6     1 10 PM         0.667 1.67           100          1
#>  7 1         7     2 8 AM          0     2              100          1
#>  8 1         8     2 3 PM          0.333 2.33           100          1
#>  9 1         9     2 10 PM         0.667 2.67           100          1
#> 10 1        10     3 8 AM          0     3              107.         1
#> # ℹ 1,232 more rows
…
time: centred on initial status.

time_3.33: centred on the study’s midpoint.

time_6.67: centred on the study’s final wave.

# Table 5.9, page 182:
antidepressants |>
  select(-c(id, positive_mood, treatment)) |>
  mutate(time_3.33 = time - 3.33, time_6.67 = time - 6.67)
#> # A tibble: 1,242 × 7
#>     wave   day reading time_of_day  time time_3.33 time_6.67
#>    <dbl> <dbl> <chr>         <dbl> <dbl>     <dbl>     <dbl>
#>  1     1     0 8 AM          0     0        -3.33      -6.67
#>  2     2     0 3 PM          0.333 0.333    -3.00      -6.34
#>  3     3     0 10 PM         0.667 0.667    -2.66      -6.00
#>  4     4     1 8 AM          0     1        -2.33      -5.67
#>  5     5     1 3 PM          0.333 1.33     -2.00      -5.34
#>  6     6     1 10 PM         0.667 1.67     -1.66      -5.00
#>  7     7     2 8 AM          0     2        -1.33      -4.67
#>  8     8     2 3 PM          0.333 2.33     -0.997     -4.34
#>  9     9     2 10 PM         0.667 2.67     -0.663     -4.00
#> 10    10     3 8 AM          0     3        -0.33      -3.67
#> # ℹ 1,232 more rows
…
