Chapter 7: Examining the multilevel model's error covariance structure • alda
…
id: Participant ID.

wave: Wave of measurement.

time: Wave of measurement centred at time 0.

opposites_naming_score: Score on the “opposites naming”
task.

baseline_cognitive_score: Baseline score on a
standardized instrument assessing general cognitive skill.

opposites_naming
#> # A tibble: 140 × 5
#>    id     wave  time opposites_naming_score baseline_cognitive_score
#>    <fct> <dbl> <dbl>                  <dbl>                    <dbl>
#>  1 1         1     0                    205                      137
#>  2 1         2     1                    217                      137
#>  3 1         3     2                    268                      137
#>  4 1         4     3                    302                      137
#>  5 2         1     0                    219                      123
#>  6 2         2     1                    243                      123
#>  7 2         3     2                    279                      123
#>  8 2         4     3                    302                      123
#>  9 3         1     0                    142                      129
#> 10 3         2     1                    212                      129
#> # ℹ 130 more rows
…
