Chapter 4: Doing data analysis with the multilevel model for change • alda
…
child_of_alcoholic: Binary indicator for whether the
adolescent is a child of an alcoholic parent.

male: Binary indicator for whether the adolescent is a
male.

alcohol_use: Square root of the summed scores of four
eight-point items measuring frequency of alcohol use.

peer_alcohol_use: Square root of the summed scores of
two six-point items measuring frequency of peer alcohol use.

alcohol_use_1
#> # A tibble: 246 × 6
#>    id      age child_of_alcoholic  male alcohol_use peer_alcohol_use
#>    <fct> <dbl>              <dbl> <dbl>       <dbl>            <dbl>
#>  1 1        14                  1     0        1.73            1.26 
#>  2 1        15                  1     0        2               1.26 
#>  3 1        16                  1     0        2               1.26 
#>  4 2        14                  1     1        0               0.894
#>  5 2        15                  1     1        0               0.894
#>  6 2        16                  1     1        1               0.894
#>  7 3        14                  1     1        1               0.894
#>  8 3        15                  1     1        2               0.894
#>  9 3        16                  1     1        3.32            0.894
#> 10 4        14                  1     1        0               1.79 
#> # ℹ 236 more rows
…
Next we’ll look at the time-invariant male and
child_of_alcoholic variables. Because we’re summarizing
time-invariant predictors, we’ll transform the data to person-level
format with the pivot_wider() function from the
tidyr package before summarizing.

alcohol_use_1_pl <- pivot_wider(
  alcohol_use_1,
  names_from = age,
  names_prefix = "alcohol_use_",
  values_from = alcohol_use
)

alcohol_use_1_pl
#> # A tibble: 82 × 7
#>    id    child_of_alcoholic  male peer_alcohol_use alcohol_use_14 alcohol_use_15
#>    <fct>              <dbl> <dbl>            <dbl>          <dbl>          <dbl>
#>  1 1                      1     0            1.26            1.73           2   
#>  2 2                      1     1            0.894           0              0   
#>  3 3                      1     1            0.894           1              2   
#>  4 4                      1     1            1.79            0              2   
#>  5 5                      1     0            0.894           0              0   
#>  6 6                      1     1            1.55            3              3   
#>  7 7                      1     0            1.55            1.73           2.45
#>  8 8                      1     1            0               0              0   
#>  9 9                      1     1            0               0              1   
#> 10 10                     1     0            2               1              1   
#> # ℹ 72 more rows
#> # ℹ 1 more variable: alcohol_use_16 <dbl>
…
alcohol_use_1_pl <- alcohol_use_1_pl |>
  mutate(
    peer_alcohol_use_split = if_else(
      peer_alcohol_use < mean(peer_alcohol_use),
      true = "low",
      false = "high"
    ),
    peer_alcohol_use_split = factor(peer_alcohol_use_split, levels = c("low", "high"))
  )

alcohol_use_1_pl
#> # A tibble: 82 × 8
#>    id    child_of_alcoholic  male peer_alcohol_use alcohol_use_14 alcohol_use_15
#>    <fct>              <dbl> <dbl>            <dbl>          <dbl>          <dbl>
#>  1 1                      1     0            1.26            1.73           2   
#>  2 2                      1     1            0.894           0              0   
#>  3 3                      1     1            0.894           1              2   
#>  4 4                      1     1            1.79            0              2   
#>  5 5                      1     0            0.894           0              0   
#>  6 6                      1     1            1.55            3              3   
#>  7 7                      1     0            1.55            1.73           2.45
#>  8 8                      1     1            0               0              0   
#>  9 9                      1     1            0               0              1   
#> 10 10                     1     0            2               1              1   
#> # ℹ 72 more rows
#> # ℹ 2 more variables: alcohol_use_16 <dbl>, peer_alcohol_use_split <fct>
…
prototypical_alcohol_use
#> # A tibble: 21 × 8
#>    model     age alcohol_use    SE  CI_low CI_high child_of_alcoholic
#>    <chr>   <int>       <dbl> <dbl>   <dbl>   <dbl> <fct>             
#>  1 Model B    14       0.651 0.590 -0.511     1.81 NA                
#>  2 Model B    15       0.922 0.589 -0.238     2.08 NA                
#>  3 Model B    16       1.19  0.594  0.0233    2.36 NA                
#>  4 Model C    14       0.316 0.595 -0.857     1.49 0                 
#>  5 Model C    14       1.06  0.598 -0.120     2.24 1                 
#>  6 Model C    15       0.609 0.593 -0.559     1.78 0                 
#>  7 Model C    15       1.30  0.595  0.130     2.48 1                 
#>  8 Model C    16       0.902 0.602 -0.284     2.09 0                 
#>  9 Model C    16       1.55  0.607  0.351     2.74 1                 
#> 10 Model E    14       0.142 0.591 -1.02      1.31 0                 
#> # ℹ 11 more rows
#> # ℹ 1 more variable: peer_alcohol_use <fct>
…
alcohol_use_1_preds
#> # A tibble: 72 × 5
#>    trajectory id      age alcohol_use .fitted
#>    <fct>      <fct> <dbl>       <dbl>   <dbl>
#>  1 no_pooling 4        14        0      0.378
#>  2 no_pooling 4        15        2      1.24 
#>  3 no_pooling 4        16        1.73   2.11 
#>  4 no_pooling 14       14        2.83   3.09 
#>  5 no_pooling 14       15        3.61   3.09 
#>  6 no_pooling 14       16        2.83   3.09 
#>  7 no_pooling 23       14        1      0.878
#>  8 no_pooling 23       15        1      1.24 
#>  9 no_pooling 23       16        1.73   1.61 
#> 10 no_pooling 32       14        1.73   1.75 
#> # ℹ 62 more rows
…
