Chapter 2: Exploring longitudinal data on change • alda
…
tolerance: Average score across a 9-item scale
assessing attitudes favourable to deviant behaviour. Each item used a
four point scale (1 = very wrong, 2 = wrong, 3 = a little bit wrong, 4 =
not wrong at all).

male: Binary indicator for whether the adolescent is a
male.

exposure: Average score across a 9-item scale assessing
level of exposure to deviant peers. Each item used a five point Likert
score (ranging from 0 = none, to 4 = all).

deviant_tolerance_pp
#> # A tibble: 80 × 5
#>    id      age tolerance  male exposure
#>    <fct> <dbl>     <dbl> <dbl>    <dbl>
#>  1 9        11      2.23     0     1.54
#>  2 9        12      1.79     0     1.54
#>  3 9        13      1.9      0     1.54
#>  4 9        14      2.12     0     1.54
#>  5 9        15      2.66     0     1.54
#>  6 45       11      1.12     1     1.16
#>  7 45       12      1.45     1     1.16
#>  8 45       13      1.45     1     1.16
#>  9 45       14      1.45     1     1.16
#> 10 45       15      1.99     1     1.16
#> # ℹ 70 more rows
…
To convert a person-level data set into a person-period data set use
pivot_longer():

# Figure 2.1, page 18:
pivot_longer(
  deviant_tolerance_pl,
  cols = starts_with("tolerance_"),
  names_to = "age",
  names_prefix = "tolerance_",
  names_transform = as.integer,
  values_to = "tolerance"
)
#> # A tibble: 80 × 5
#>    id     male exposure   age tolerance
#>    <fct> <dbl>    <dbl> <int>     <dbl>
#>  1 9         0     1.54    11      2.23
#>  2 9         0     1.54    12      1.79
#>  3 9         0     1.54    13      1.9 
#>  4 9         0     1.54    14      2.12
#>  5 9         0     1.54    15      2.66
#>  6 45        1     1.16    11      1.12
#>  7 45        1     1.16    12      1.45
#>  8 45        1     1.16    13      1.45
#>  9 45        1     1.16    14      1.45
#> 10 45        1     1.16    15      1.99
#> # ℹ 70 more rows
…
deviant_tolerance_tidy_2 <- deviant_tolerance_tidy |>
  left_join(select(deviant_tolerance_pl, id, male, exposure)) |>
  mutate(sex = if_else(male == 0, "female", "male"))

deviant_tolerance_tidy_2
#> # A tibble: 32 × 9
#>    id    term      estimate std.error statistic p.value  male exposure sex   
#>    <fct> <chr>        <dbl>     <dbl>     <dbl>   <dbl> <dbl>    <dbl> <chr> 
#>  1 9     intercept   1.90      0.252      7.55  0.00482     0     1.54 female
#>  2 9     slope       0.119     0.103      1.16  0.331       0     1.54 female
#>  3 45    intercept   1.14      0.133      8.58  0.00333     1     1.16 male  
#>  4 45    slope       0.174     0.0544     3.20  0.0495      1     1.16 male  
#>  5 268   intercept   1.54      0.260      5.90  0.00973     1     0.9  male  
#>  6 268   slope       0.0230    0.106      0.216 0.843       1     0.9  male  
#>  7 314   intercept   1.31      0.153      8.56  0.00336     0     0.81 female
#>  8 314   slope      -0.0300    0.0623    -0.481 0.663       0     0.81 female
#>  9 442   intercept   1.58      0.208      7.58  0.00476     0     1.13 female
#> 10 442   slope       0.0580    0.0849     0.683 0.543       0     1.13 female
#> # ℹ 22 more rows
…
