Longitudinal data organization • alda
…
Converting between formats

To convert a person-level data set to person-period format use
dplyr::pivot_longer():

pivot_longer(
  deviant_tolerance_pl,
  cols = starts_with("tolerance_"),
  names_to = "age",
  names_pattern = "([[:digit:]]+)",
  names_transform = as.integer,
  values_to = "tolerance"
)
#> # A tibble: 80 × 5
#>    id     male exposure   age tolerance
#>    <fct> <dbl>    <dbl> <int>     <dbl>
#>  1 9         0     1.54    11      2.23
#>  2 9         0     1.54    12      1.79
#>  3 9         0     1.54    13      1.9 
#>  4 9         0     1.54    14      2.12
#>  5 9         0     1.54    15      2.66
#>  6 45        1     1.16    11      1.12
#>  7 45        1     1.16    12      1.45
#>  8 45        1     1.16    13      1.45
#>  9 45        1     1.16    14      1.45
#> 10 45        1     1.16    15      1.99
#> # ℹ 70 more rows
…
deviant_tolerance_pp |>
  mutate(
    temp_age = age,
    temp_dummy = 1
  ) |>
  pivot_wider(
    names_from = temp_age,
    names_prefix = "age_",
    values_from = temp_dummy,
    values_fill = 0
  )
#> # A tibble: 80 × 10
#>    id      age tolerance  male exposure age_11 age_12 age_13 age_14 age_15
#>    <fct> <dbl>     <dbl> <dbl>    <dbl>  <dbl>  <dbl>  <dbl>  <dbl>  <dbl>
#>  1 9        11      2.23     0     1.54      1      0      0      0      0
#>  2 9        12      1.79     0     1.54      0      1      0      0      0
#>  3 9        13      1.9      0     1.54      0      0      1      0      0
#>  4 9        14      2.12     0     1.54      0      0      0      1      0
#>  5 9        15      2.66     0     1.54      0      0      0      0      1
#>  6 45       11      1.12     1     1.16      1      0      0      0      0
#>  7 45       12      1.45     1     1.16      0      1      0      0      0
#>  8 45       13      1.45     1     1.16      0      0      1      0      0
#>  9 45       14      1.45     1     1.16      0      0      0      1      0
#> 10 45       15      1.99     1     1.16      0      0      0      0      1
#> # ℹ 70 more rows
…
  # In order to add the event indicator, the time variable needs a different
  # name in the person-level data from the name we want to use in `reframe()`.
  # This is a temporary variable so it doesn't matter what the name is.
  rename(grades = grade) |>
  group_by(id) |>
  reframe(
    grade = 1:max(grades),
    event = if_else(grade == grades & censor == 0, 1, 0),
    # To keep predictors from the person-level data, simply list them. If there
    # are many predictors it might be more convenient to use
    # `dplyr::left_join()` after `reframe()`.
    parental_transition,
    parental_antisociality
  )
#> # A tibble: 1,902 × 5
#>    id    grade event parental_transition parental_antisociality
#>    <fct> <int> <dbl>               <dbl>                  <dbl>
#>  1 1         1     0                   0                  1.98 
#>  2 1         2     0                   0                  1.98 
#>  3 1         3     0                   0                  1.98 
#>  4 1         4     0                   0                  1.98 
#>  5 1         5     0                   0                  1.98 
#>  6 1         6     0                   0                  1.98 
#>  7 1         7     0                   0                  1.98 
#>  8 1         8     0                   0                  1.98 
#>  9 1         9     1                   0                  1.98 
#> 10 2         1     0                   1                 -0.545
#> # ℹ 1,892 more rows
…
